…
brfss_smart2010
```

    ## # A tibble: 10,625 × 23
    ##     year state location  class  topic  question  response sample_size data_value
    ##    <int> <chr> <chr>     <chr>  <chr>  <chr>     <ord>          <int>      <dbl>
    ##  1  2010 AL    Jefferso… Healt… Overa… How is y… Poor              45        5.5
    ##  2  2010 AL    Mobile C… Healt… Overa… How is y… Poor              66        6.4
    ##  3  2010 AL    Tuscaloo… Healt… Overa… How is y… Poor              35        4.2
    ##  4  2010 AZ    Maricopa… Healt… Overa… How is y… Poor              62        3.5
    ##  5  2010 AZ    Pima Cou… Healt… Overa… How is y… Poor              49        5.7
    ##  6  2010 AZ    Pinal Co… Healt… Overa… How is y… Poor              30        4  
    ##  7  2010 AR    Benton C… Healt… Overa… How is y… Poor              21        3  
    ##  8  2010 AR    Pulaski … Healt… Overa… How is y… Poor              36        3.8
    ##  9  2010 AR    Washingt… Healt… Overa… How is y… Poor              16        2.4
    ## 10  2010 CA    Alameda … Healt… Overa… How is y… Poor              23        2.4
    ## # … with 10,615 more rows, and 14 more variables: confidence_limit_low <dbl>,
    ## #   confidence_limit_high <dbl>, display_order <int>, data_value_unit <chr>,
    ## #   data_value_type <chr>, data_value_footnote_symbol <chr>,
    ## #   data_value_footnote <chr>, data_source <chr>, class_id <chr>,
    ## #   topic_id <chr>, location_id <chr>, question_id <chr>, resp_id <chr>,
    ## #   geo_location <chr>

1.  In 2002, which states were observed at 7 or more locations?

``` r
brfss_smart2010 %>%
  filter(year == "2002") %>%
  group_by(state) %>%
  summarize(count_location = n()) %>%
  filter(count_location >= 7)
```

    ## # A tibble: 36 × 2
    ##    state count_location
    ##    <chr>          <int>
    ##  1 AZ                10
    ##  2 CO                20
    ##  3 CT                35
    ##  4 DE                15
    ##  5 FL                35
    ##  6 GA                15
    ##  7 HI                20
    ##  8 ID                10
    ##  9 IL                15
    ## 10 IN                10
    ## # … with 26 more rows

What about in 2010?

``` r
brfss_smart2010 %>%
  filter(year == "2010") %>%
  group_by(state) %>%
  summarize(count_location = n()) %>%
  filter(count_location >= 7)
```

    ## # A tibble: 45 × 2
    ##    state count_location
    ##    <chr>          <int>
    ##  1 AL                15
    ##  2 AR                15
    ##  3 AZ                15
    ##  4 CA                60
    ##  5 CO                35
    ##  6 CT                25
    ##  7 DE                15
    ##  8 FL               205
    ##  9 GA                20
    ## 10 HI                20
    ## # … with 35 more rows
2.  Construct a dataset that is limited to Excellent responses, and
    contains, year, state, and a variable that averages the data\_value
    across locations within a state. Make a “spaghetti” plot of this
    average value over time within a state

``` r
brfss_smart2010 %>%
  filter(response == "Excellent") %>%
  group_by(state, location) %>%
  summarise(mean_data_value = mean(data_value))
```

    ## `summarise()` has grouped output by 'state'. You can override using the `.groups` argument.

    ## # A tibble: 404 × 3
    ## # Groups:   state [51]
    ##    state location                     mean_data_value
    ##    <chr> <chr>                                  <dbl>
    ##  1 AK    Anchorage Municipality                  24.2
    ##  2 AK    Fairbanks North Star Borough            22.4
    ##  3 AL    Jefferson County                        18.8
    ##  4 AL    Mobile County                           18.0
    ##  5 AL    Montgomery County                       16.8
    ##  6 AL    Tuscaloosa County                       19.7
    ##  7 AR    Benton County                           21.4
    ##  8 AR    Pulaski County                          21.4
    ##  9 AR    Washington County                       22.9
    ## 10 AZ    Cochise County                          17.2
    ## # … with 394 more rows
